1 10 20
100 200 125
201 210 89
900 1000 174
999999 999999 259
1 1 1
1 2 2
1 3 8
2 3 8
794 832 135
825 982 179
817 861 148
33 434 144
723 767 153
351 965 179
650 887 179
924 925 130
300 689 145
909 972 174
844 976 179
44 361 144
467 732 171
652 812 171
71 600 144
709 791 153
799 801 73
716 829 153
7 106 119
656 985 179
572 890 179
597 910 179
74 894 179
592 602 119
869 876 179
438 692 145
24 630 144
92 261 128
348 407 126
758 995 179
211 262 128
114 448 144
172 341 144
69 679 145
724 938 179
470 757 171
546 550 93
169 402 144
654 667 145
64 805 171
237 509 144
328 902 179
701 973 179
956 964 130
705 707 127
524 557 137
441 601 142
329 915 179
750 962 179
837 888 179
136 781 171
619 947 179
133 148 117
220 933 179
752 771 153
968 978 143
263 355 144
195 917 179
128 892 179
743 941 179
38 217 125
725 835 153
238 633 144
576 636 132
395 704 171
193 637 144
333 505 142
279 922 179
141 987 179
200 283 128
227 301 128
722 913 179
112 502 144
496 643 137
595 850 171
531 780 171
765 804 153
389 797 171
579 900 179
275 465 144
511 921 179
366 615 142
665 681 145
567 761 171
775 998 179
299 506 144
996 997 50
459 538 142
175 953 179
382 500 142
479 911 179
553 727 171
874 981 174
885 899 148
721 766 153
755 806 153
435 831 171
632311 872099 525
594497 558742 434
17375 140780 354
902397 340074 525
843259 592767 525
337534 49859 443
330729 333464 353
750745 809218 468
967736 261935 525
129824 297164 443
566782 841024 525
284883 586381 470
836414 225763 509
899155 229213 525
905913 949562 507
11435 669764 509
642443 66276 509
803483 378649 509
547088 913365 525
635639 178022 509
155744 594265 470
19686 277746 443
155304 251306 443
329095 230290 443
43308 720687 509
795957 900405 525
784879 865134 525
63405 765173 509
515202 448144 470
692798 876599 525
21361 271530 443
129579 144511 375
645337 308976 509
594452 442312 470
893835 383958 525
754730 341486 509
525477 739298 509
964238 805114 525
329409 869325 525
686995 254357 509
23277 280180 443
532264 693717 509
847924 447757 525
152340 771469 509
20741 8071 279
99318 557568 470
94036 365586 443
252515 175258 443
980813 319580 525
248117 822626 509
89149 311417 443
333563 137993 443
